{
  "tagfile": {
    "compound": [
      {
        "@kind": "class",
        "name": {
          "$": "QtQuick.Controls.AbstractButton"
        },
        "filename": {
          "$": "qml-qtquick-controls2-abstractbutton.html"
        },
        "member": [
          {
            "@kind": "function",
            "@protection": "public",
            "@virtualness": "non",
            "@static": "no",
            "type": {},
            "name": {
              "$": "pressed"
            },
            "anchorfile": {
              "$": "qml-qtquick-controls2-abstractbutton.html"
            },
            "anchor": {
              "$": "pressed-signal"
            },
            "arglist": {
              "$": "()"
            }
          },
          {
            "@kind": "function",
            "@protection": "public",
            "@virtualness": "non",
            "@static": "no",
            "type": {},
            "name": {
              "$": "released"
            },
            "anchorfile": {
              "$": "qml-qtquick-controls2-abstractbutton.html"
            },
            "anchor": {
              "$": "released-signal"
            },
            "arglist": {
              "$": "()"
            }
          },
          {
            "@kind": "function",
            "@protection": "public",
            "@virtualness": "non",
            "@static": "no",
            "type": {},
            "name": {
              "$": "canceled"
            },
            "anchorfile": {
              "$": "qml-qtquick-controls2-abstractbutton.html"
            },
            "anchor": {
              "$": "canceled-signal"
            },
            "arglist": {
              "$": "()"
            }
          },
          {
            "@kind": "function",
            "@protection": "public",
            "@virtualness": "non",
            "@static": "no",
            "type": {},
            "name": {
              "$": "clicked"
            },
            "anchorfile": {
              "$": "qml-qtquick-controls2-abstractbutton.html"
            },
            "anchor": {
              "$": "clicked-signal"
            },
            "arglist": {
              "$": "()"
            }
          },
          {
            "@kind": "function",
            "@protection": "public",
            "@virtualness": "non",
            "@static": "no",
            "type": {},
            "name": {
              "$": "toggled"
            },
            "anchorfile": {
              "$": "qml-qtquick-controls2-abstractbutton.html"
            },
            "anchor": {
              "$": "toggled-signal"
            },
            "arglist": {
              "$": "()"
            }
          },
          {
            "@kind": "function",
            "@protection": "public",
            "@virtualness": "non",
            "@static": "no",
            "type": {},
            "name": {
              "$": "pressAndHold"
            },
            "anchorfile": {
              "$": "qml-qtquick-controls2-abstractbutton.html"
            },
            "anchor": {
              "$": "pressAndHold-signal"
            },
            "arglist": {
              "$": "()"
            }
          },
          {
            "@kind": "function",
            "@protection": "public",
            "@virtualness": "non",
            "@static": "no",
            "type": {},
            "name": {
              "$": "doubleClicked"
            },
            "anchorfile": {
              "$": "qml-qtquick-controls2-abstractbutton.html"
            },
            "anchor": {
              "$": "doubleClicked-signal"
            },
            "arglist": {
              "$": "()"
            }
          },
          {
            "@kind": "function",
            "@protection": "public",
            "@virtualness": "non",
            "@static": "no",
            "type": {
              "$": "void"
            },
            "name": {
              "$": "toggle"
            },
            "anchorfile": {
              "$": "qml-qtquick-controls2-abstractbutton.html"
            },
            "anchor": {
              "$": "toggle-method"
            },
            "arglist": {
              "$": "()"
            }
          }
        ]
      },
      {
        "@kind": "class",
        "name": {
          "$": "QtQuick.Controls.Action"
        },
        "filename": {
          "$": "qml-qtquick-controls2-action.html"
        },
        "member": [
          {
            "@kind": "function",
            "@protection": "public",
            "@virtualness": "non",
            "@static": "no",
            "type": {},
            "name": {
              "$": "toggled"
            },
            "anchorfile": {
              "$": "qml-qtquick-controls2-action.html"
            },
            "anchor": {
              "$": "toggled-signal"
            },
            "arglist": {
              "$": "( source)"
            }
          },
          {
            "@kind": "function",
            "@protection": "public",
            "@virtualness": "non",
            "@static": "no",
            "type": {},
            "name": {
              "$": "triggered"
            },
            "anchorfile": {
              "$": "qml-qtquick-controls2-action.html"
            },
            "anchor": {
              "$": "triggered-signal"
            },
            "arglist": {
              "$": "( source)"
            }
          },
          {
            "@kind": "function",
            "@protection": "public",
            "@virtualness": "non",
            "@static": "no",
            "type": {
              "$": "void"
            },
            "name": {
              "$": "toggle"
            },
            "anchorfile": {
              "$": "qml-qtquick-controls2-action.html"
            },
            "anchor": {
              "$": "toggle-method"
            },
            "arglist": {
              "$": "( source)"
            }
          },
          {
            "@kind": "function",
            "@protection": "public",
            "@virtualness": "non",
            "@static": "no",
            "type": {
              "$": "void"
            },
            "name": {
              "$": "trigger"
            },
            "anchorfile": {
              "$": "qml-qtquick-controls2-action.html"
            },
            "anchor": {
              "$": "trigger-method"
            },
            "arglist": {
              "$": "( source)"
            }
          }
        ]
      },
      {
        "@kind": "class",
        "name": {
          "$": "QtQuick.Controls.ActionGroup"
        },
        "filename": {
          "$": "qml-qtquick-controls2-actiongroup.html"
        },
        "member": [
          {
            "@kind": "function",
            "@protection": "public",
            "@virtualness": "non",
            "@static": "no",
            "type": {},
            "name": {
              "$": "triggered"
            },
            "anchorfile": {
              "$": "qml-qtquick-controls2-actiongroup.html"
            },
            "anchor": {
              "$": "triggered-signal"
            },
            "arglist": {
              "$": "( action)"
            }
          },
          {
            "@kind": "function",
            "@protection": "public",
            "@virtualness": "non",
            "@static": "no",
            "type": {
              "$": "void"
            },
            "name": {
              "$": "addAction"
            },
            "anchorfile": {
              "$": "qml-qtquick-controls2-actiongroup.html"
            },
            "anchor": {
              "$": "addAction-method"
            },
            "arglist": {
              "$": "( action)"
            }
          },
          {
            "@kind": "function",
            "@protection": "public",
            "@virtualness": "non",
            "@static": "no",
            "type": {
              "$": "void"
            },
            "name": {
              "$": "removeAction"
            },
            "anchorfile": {
              "$": "qml-qtquick-controls2-actiongroup.html"
            },
            "anchor": {
              "$": "removeAction-method"
            },
            "arglist": {
              "$": "( action)"
            }
          }
        ]
      },
      {
        "@kind": "class",
        "name": {
          "$": "QtQuick.Controls.ApplicationWindow"
        },
        "filename": {
          "$": "qml-qtquick-controls2-applicationwindow.html"
        }
      },
      {
        "@kind": "class",
        "name": {
          "$": "QtQuick.Controls.BusyIndicator"
        },
        "filename": {
          "$": "qml-qtquick-controls2-busyindicator.html"
        }
      },
      {
        "@kind": "class",
        "name": {
          "$": "QtQuick.Controls.Button"
        },
        "filename": {
          "$": "qml-qtquick-controls2-button.html"
        }
      },
      {
        "@kind": "class",
        "name": {
          "$": "QtQuick.Controls.ButtonGroup"
        },
        "filename": {
          "$": "qml-qtquick-controls2-buttongroup.html"
        },
        "member": [
          {
            "@kind": "function",
            "@protection": "public",
            "@virtualness": "non",
            "@static": "no",
            "type": {},
            "name": {
              "$": "clicked"
            },
            "anchorfile": {
              "$": "qml-qtquick-controls2-buttongroup.html"
            },
            "anchor": {
              "$": "clicked-signal"
            },
            "arglist": {
              "$": "( button)"
            }
          },
          {
            "@kind": "function",
            "@protection": "public",
            "@virtualness": "non",
            "@static": "no",
            "type": {
              "$": "void"
            },
            "name": {
              "$": "addButton"
            },
            "anchorfile": {
              "$": "qml-qtquick-controls2-buttongroup.html"
            },
            "anchor": {
              "$": "addButton-method"
            },
            "arglist": {
              "$": "( button)"
            }
          },
          {
            "@kind": "function",
            "@protection": "public",
            "@virtualness": "non",
            "@static": "no",
            "type": {
              "$": "void"
            },
            "name": {
              "$": "removeButton"
            },
            "anchorfile": {
              "$": "qml-qtquick-controls2-buttongroup.html"
            },
            "anchor": {
              "$": "removeButton-method"
            },
            "arglist": {
              "$": "( button)"
            }
          }
        ]
      },
      {
        "@kind": "class",
        "name": {
          "$": "QtQuick.Controls.CheckBox"
        },
        "filename": {
          "$": "qml-qtquick-controls2-checkbox.html"
        }
      },
      {
        "@kind": "class",
        "name": {
          "$": "QtQuick.Controls.CheckDelegate"
        },
        "filename": {
          "$": "qml-qtquick-controls2-checkdelegate.html"
        }
      },
      {
        "@kind": "class",
        "name": {
          "$": "QtQuick.Controls.ComboBox"
        },
        "filename": {
          "$": "qml-qtquick-controls2-combobox.html"
        },
        "member": [
          {
            "@kind": "function",
            "@protection": "public",
            "@virtualness": "non",
            "@static": "no",
            "type": {
              "$": "void"
            },
            "name": {
              "$": "activated"
            },
            "anchorfile": {
              "$": "qml-qtquick-controls2-combobox.html"
            },
            "anchor": {
              "$": "activated-signal"
            },
            "arglist": {
              "$": "( index)"
            }
          },
          {
            "@kind": "function",
            "@protection": "public",
            "@virtualness": "non",
            "@static": "no",
            "type": {
              "$": "void"
            },
            "name": {
              "$": "highlighted"
            },
            "anchorfile": {
              "$": "qml-qtquick-controls2-combobox.html"
            },
            "anchor": {
              "$": "highlighted-signal"
            },
            "arglist": {
              "$": "( index)"
            }
          },
          {
            "@kind": "function",
            "@protection": "public",
            "@virtualness": "non",
            "@static": "no",
            "type": {
              "$": "void"
            },
            "name": {
              "$": "accepted"
            },
            "anchorfile": {
              "$": "qml-qtquick-controls2-combobox.html"
            },
            "anchor": {
              "$": "accepted-signal"
            },
            "arglist": {
              "$": "()"
            }
          },
          {
            "@kind": "function",
            "@protection": "public",
            "@virtualness": "non",
            "@static": "no",
            "type": {
              "$": "int"
            },
            "name": {
              "$": "indexOfValue"
            },
            "anchorfile": {
              "$": "qml-qtquick-controls2-combobox.html"
            },
            "anchor": {
              "$": "indexOfValue-method"
            },
            "arglist": {
              "$": "( value)"
            }
          },
          {
            "@kind": "function",
            "@protection": "public",
            "@virtualness": "non",
            "@static": "no",
            "type": {
              "$": "string"
            },
            "name": {
              "$": "textAt"
            },
            "anchorfile": {
              "$": "qml-qtquick-controls2-combobox.html"
            },
            "anchor": {
              "$": "textAt-method"
            },
            "arglist": {
              "$": "( index)"
            }
          },
          {
            "@kind": "function",
            "@protection": "public",
            "@virtualness": "non",
            "@static": "no",
            "type": {
              "$": "int"
            },
            "name": {
              "$": "find"
            },
            "anchorfile": {
              "$": "qml-qtquick-controls2-combobox.html"
            },
            "anchor": {
              "$": "find-method"
            },
            "arglist": {
              "$": "( text,  enumeration flags)"
            }
          },
          {
            "@kind": "function",
            "@protection": "public",
            "@virtualness": "non",
            "@static": "no",
            "type": {
              "$": "void"
            },
            "name": {
              "$": "incrementCurrentIndex"
            },
            "anchorfile": {
              "$": "qml-qtquick-controls2-combobox.html"
            },
            "anchor": {
              "$": "incrementCurrentIndex-method"
            },
            "arglist": {
              "$": "()"
            }
          },
          {
            "@kind": "function",
            "@protection": "public",
            "@virtualness": "non",
            "@static": "no",
            "type": {
              "$": "void"
            },
            "name": {
              "$": "decrementCurrentIndex"
            },
            "anchorfile": {
              "$": "qml-qtquick-controls2-combobox.html"
            },
            "anchor": {
              "$": "decrementCurrentIndex-method"
            },
            "arglist": {
              "$": "()"
            }
          },
          {
            "@kind": "function",
            "@protection": "public",
            "@virtualness": "non",
            "@static": "no",
            "type": {
              "$": "void"
            },
            "name": {
              "$": "selectAll"
            },
            "anchorfile": {
              "$": "qml-qtquick-controls2-combobox.html"
            },
            "anchor": {
              "$": "selectAll-method"
            },
            "arglist": {
              "$": "()"
            }
          }
        ]
      },
      {
        "@kind": "class",
        "name": {
          "$": "QtQuick.Controls.Container"
        },
        "filename": {
          "$": "qml-qtquick-controls2-container.html"
        },
        "member": [
          {
            "@kind": "function",
            "@protection": "public",
            "@virtualness": "non",
            "@static": "no",
            "type": {
              "$": "Item"
            },
            "name": {
              "$": "itemAt"
            },
            "anchorfile": {
              "$": "qml-qtquick-controls2-container.html"
            },
            "anchor": {
              "$": "itemAt-method"
            },
            "arglist": {
              "$": "( index)"
            }
          },
          {
            "@kind": "function",
            "@protection": "public",
            "@virtualness": "non",
            "@static": "no",
            "type": {
              "$": "void"
            },
            "name": {
              "$": "addItem"
            },
            "anchorfile": {
              "$": "qml-qtquick-controls2-container.html"
            },
            "anchor": {
              "$": "addItem-method"
            },
            "arglist": {
              "$": "( item)"
            }
          },
          {
            "@kind": "function",
            "@protection": "public",
            "@virtualness": "non",
            "@static": "no",
            "type": {
              "$": "void"
            },
            "name": {
              "$": "insertItem"
            },
            "anchorfile": {
              "$": "qml-qtquick-controls2-container.html"
            },
            "anchor": {
              "$": "insertItem-method"
            },
            "arglist": {
              "$": "( index,  Item item)"
            }
          },
          {
            "@kind": "function",
            "@protection": "public",
            "@virtualness": "non",
            "@static": "no",
            "type": {
              "$": "void"
            },
            "name": {
              "$": "moveItem"
            },
            "anchorfile": {
              "$": "qml-qtquick-controls2-container.html"
            },
            "anchor": {
              "$": "moveItem-method"
            },
            "arglist": {
              "$": "( from,  int to)"
            }
          },
          {
            "@kind": "function",
            "@protection": "public",
            "@virtualness": "non",
            "@static": "no",
            "type": {
              "$": "void"
            },
            "name": {
              "$": "removeItem"
            },
            "anchorfile": {
              "$": "qml-qtquick-controls2-container-obsolete.html"
            },
            "anchor": {
              "$": "removeItem-method"
            },
            "arglist": {
              "$": "( index)"
            }
          },
          {
            "@kind": "function",
            "@protection": "public",
            "@virtualness": "non",
            "@static": "no",
            "type": {
              "$": "void"
            },
            "name": {
              "$": "removeItem"
            },
            "anchorfile": {
              "$": "qml-qtquick-controls2-container.html"
            },
            "anchor": {
              "$": "removeItem-method"
            },
            "arglist": {
              "$": "( item)"
            }
          },
          {
            "@kind": "function",
            "@protection": "public",
            "@virtualness": "non",
            "@static": "no",
            "type": {
              "$": "Item"
            },
            "name": {
              "$": "takeItem"
            },
            "anchorfile": {
              "$": "qml-qtquick-controls2-container.html"
            },
            "anchor": {
              "$": "takeItem-method"
            },
            "arglist": {
              "$": "( index)"
            }
          },
          {
            "@kind": "function",
            "@protection": "public",
            "@virtualness": "non",
            "@static": "no",
            "type": {
              "$": "void"
            },
            "name": {
              "$": "setCurrentIndex"
            },
            "anchorfile": {
              "$": "qml-qtquick-controls2-container.html"
            },
            "anchor": {
              "$": "setCurrentIndex-method"
            },
            "arglist": {
              "$": "( index)"
            }
          },
          {
            "@kind": "function",
            "@protection": "public",
            "@virtualness": "non",
            "@static": "no",
            "type": {
              "$": "void"
            },
            "name": {
              "$": "incrementCurrentIndex"
            },
            "anchorfile": {
              "$": "qml-qtquick-controls2-container.html"
            },
            "anchor": {
              "$": "incrementCurrentIndex-method"
            },
            "arglist": {
              "$": "()"
            }
          },
          {
            "@kind": "function",
            "@protection": "public",
            "@virtualness": "non",
            "@static": "no",
            "type": {
              "$": "void"
            },
            "name": {
              "$": "decrementCurrentIndex"
            },
            "anchorfile": {
              "$": "qml-qtquick-controls2-container.html"
            },
            "anchor": {
              "$": "decrementCurrentIndex-method"
            },
            "arglist": {
              "$": "()"
            }
          }
        ]
      },
      {
        "@kind": "class",
        "name": {
          "$": "QtQuick.Controls.Control"
        },
        "filename": {
          "$": "qml-qtquick-controls2-control.html"
        }
      },
      {
        "@kind": "class",
        "name": {
          "$": "QtQuick.Controls.DelayButton"
        },
        "filename": {
          "$": "qml-qtquick-controls2-delaybutton.html"
        },
        "member": {
          "@kind": "function",
          "@protection": "public",
          "@virtualness": "non",
          "@static": "no",
          "type": {},
          "name": {
            "$": "activated"
          },
          "anchorfile": {
            "$": "qml-qtquick-controls2-delaybutton.html"
          },
          "anchor": {
            "$": "activated-signal"
          },
          "arglist": {
            "$": "()"
          }
        }
      },
      {
        "@kind": "class",
        "name": {
          "$": "QtQuick.Controls.Dial"
        },
        "filename": {
          "$": "qml-qtquick-controls2-dial.html"
        },
        "member": [
          {
            "@kind": "function",
            "@protection": "public",
            "@virtualness": "non",
            "@static": "no",
            "type": {},
            "name": {
              "$": "moved"
            },
            "anchorfile": {
              "$": "qml-qtquick-controls2-dial.html"
            },
            "anchor": {
              "$": "moved-signal"
            },
            "arglist": {
              "$": "()"
            }
          },
          {
            "@kind": "function",
            "@protection": "public",
            "@virtualness": "non",
            "@static": "no",
            "type": {
              "$": "void"
            },
            "name": {
              "$": "increase"
            },
            "anchorfile": {
              "$": "qml-qtquick-controls2-dial.html"
            },
            "anchor": {
              "$": "increase-method"
            },
            "arglist": {
              "$": "()"
            }
          },
          {
            "@kind": "function",
            "@protection": "public",
            "@virtualness": "non",
            "@static": "no",
            "type": {
              "$": "void"
            },
            "name": {
              "$": "decrease"
            },
            "anchorfile": {
              "$": "qml-qtquick-controls2-dial.html"
            },
            "anchor": {
              "$": "decrease-method"
            },
            "arglist": {
              "$": "()"
            }
          }
        ]
      },
      {
        "@kind": "class",
        "name": {
          "$": "QtQuick.Controls.Dialog"
        },
        "filename": {
          "$": "qml-qtquick-controls2-dialog.html"
        },
        "member": [
          {
            "@kind": "function",
            "@protection": "public",
            "@virtualness": "non",
            "@static": "no",
            "type": {},
            "name": {
              "$": "accepted"
            },
            "anchorfile": {
              "$": "qml-qtquick-controls2-dialog.html"
            },
            "anchor": {
              "$": "accepted-signal"
            },
            "arglist": {
              "$": "()"
            }
          },
          {
            "@kind": "function",
            "@protection": "public",
            "@virtualness": "non",
            "@static": "no",
            "type": {},
            "name": {
              "$": "rejected"
            },
            "anchorfile": {
              "$": "qml-qtquick-controls2-dialog.html"
            },
            "anchor": {
              "$": "rejected-signal"
            },
            "arglist": {
              "$": "()"
            }
          },
          {
            "@kind": "function",
            "@protection": "public",
            "@virtualness": "non",
            "@static": "no",
            "type": {},
            "name": {
              "$": "applied"
            },
            "anchorfile": {
              "$": "qml-qtquick-controls2-dialog.html"
            },
            "anchor": {
              "$": "applied-signal"
            },
            "arglist": {
              "$": "()"
            }
          },
          {
            "@kind": "function",
            "@protection": "public",
            "@virtualness": "non",
            "@static": "no",
            "type": {},
            "name": {
              "$": "reset"
            },
            "anchorfile": {
              "$": "qml-qtquick-controls2-dialog.html"
            },
            "anchor": {
              "$": "reset-signal"
            },
            "arglist": {
              "$": "()"
            }
          },
          {
            "@kind": "function",
            "@protection": "public",
            "@virtualness": "non",
            "@static": "no",
            "type": {},
            "name": {
              "$": "discarded"
            },
            "anchorfile": {
              "$": "qml-qtquick-controls2-dialog.html"
            },
            "anchor": {
              "$": "discarded-signal"
            },
            "arglist": {
              "$": "()"
            }
          },
          {
            "@kind": "function",
            "@protection": "public",
            "@virtualness": "non",
            "@static": "no",
            "type": {},
            "name": {
              "$": "helpRequested"
            },
            "anchorfile": {
              "$": "qml-qtquick-controls2-dialog.html"
            },
            "anchor": {
              "$": "helpRequested-signal"
            },
            "arglist": {
              "$": "()"
            }
          },
          {
            "@kind": "function",
            "@protection": "public",
            "@virtualness": "non",
            "@static": "no",
            "type": {
              "$": "AbstractButton"
            },
            "name": {
              "$": "standardButton"
            },
            "anchorfile": {
              "$": "qml-qtquick-controls2-dialog.html"
            },
            "anchor": {
              "$": "standardButton-method"
            },
            "arglist": {
              "$": "( button)"
            }
          },
          {
            "@kind": "function",
            "@protection": "public",
            "@virtualness": "non",
            "@static": "no",
            "type": {
              "$": "void"
            },
            "name": {
              "$": "accept"
            },
            "anchorfile": {
              "$": "qml-qtquick-controls2-dialog.html"
            },
            "anchor": {
              "$": "accept-method"
            },
            "arglist": {
              "$": "()"
            }
          },
          {
            "@kind": "function",
            "@protection": "public",
            "@virtualness": "non",
            "@static": "no",
            "type": {
              "$": "void"
            },
            "name": {
              "$": "reject"
            },
            "anchorfile": {
              "$": "qml-qtquick-controls2-dialog.html"
            },
            "anchor": {
              "$": "reject-method"
            },
            "arglist": {
              "$": "()"
            }
          },
          {
            "@kind": "function",
            "@protection": "public",
            "@virtualness": "non",
            "@static": "no",
            "type": {
              "$": "void"
            },
            "name": {
              "$": "done"
            },
            "anchorfile": {
              "$": "qml-qtquick-controls2-dialog.html"
            },
            "anchor": {
              "$": "done-method"
            },
            "arglist": {
              "$": "( result)"
            }
          }
        ]
      },
      {
        "@kind": "class",
        "name": {
          "$": "QtQuick.Controls.DialogButtonBox"
        },
        "filename": {
          "$": "qml-qtquick-controls2-dialogbuttonbox.html"
        },
        "member": [
          {
            "@kind": "function",
            "@protection": "public",
            "@virtualness": "non",
            "@static": "no",
            "type": {},
            "name": {
              "$": "accepted"
            },
            "anchorfile": {
              "$": "qml-qtquick-controls2-dialogbuttonbox.html"
            },
            "anchor": {
              "$": "accepted-signal"
            },
            "arglist": {
              "$": "()"
            }
          },
          {
            "@kind": "function",
            "@protection": "public",
            "@virtualness": "non",
            "@static": "no",
            "type": {},
            "name": {
              "$": "rejected"
            },
            "anchorfile": {
              "$": "qml-qtquick-controls2-dialogbuttonbox.html"
            },
            "anchor": {
              "$": "rejected-signal"
            },
            "arglist": {
              "$": "()"
            }
          },
          {
            "@kind": "function",
            "@protection": "public",
            "@virtualness": "non",
            "@static": "no",
            "type": {},
            "name": {
              "$": "applied"
            },
            "anchorfile": {
              "$": "qml-qtquick-controls2-dialogbuttonbox.html"
            },
            "anchor": {
              "$": "applied-signal"
            },
            "arglist": {
              "$": "()"
            }
          },
          {
            "@kind": "function",
            "@protection": "public",
            "@virtualness": "non",
            "@static": "no",
            "type": {},
            "name": {
              "$": "reset"
            },
            "anchorfile": {
              "$": "qml-qtquick-controls2-dialogbuttonbox.html"
            },
            "anchor": {
              "$": "reset-signal"
            },
            "arglist": {
              "$": "()"
            }
          },
          {
            "@kind": "function",
            "@protection": "public",
            "@virtualness": "non",
            "@static": "no",
            "type": {},
            "name": {
              "$": "discarded"
            },
            "anchorfile": {
              "$": "qml-qtquick-controls2-dialogbuttonbox.html"
            },
            "anchor": {
              "$": "discarded-signal"
            },
            "arglist": {
              "$": "()"
            }
          },
          {
            "@kind": "function",
            "@protection": "public",
            "@virtualness": "non",
            "@static": "no",
            "type": {},
            "name": {
              "$": "helpRequested"
            },
            "anchorfile": {
              "$": "qml-qtquick-controls2-dialogbuttonbox.html"
            },
            "anchor": {
              "$": "helpRequested-signal"
            },
            "arglist": {
              "$": "()"
            }
          },
          {
            "@kind": "function",
            "@protection": "public",
            "@virtualness": "non",
            "@static": "no",
            "type": {},
            "name": {
              "$": "clicked"
            },
            "anchorfile": {
              "$": "qml-qtquick-controls2-dialogbuttonbox.html"
            },
            "anchor": {
              "$": "clicked-signal"
            },
            "arglist": {
              "$": "( button)"
            }
          },
          {
            "@kind": "function",
            "@protection": "public",
            "@virtualness": "non",
            "@static": "no",
            "type": {
              "$": "AbstractButton"
            },
            "name": {
              "$": "standardButton"
            },
            "anchorfile": {
              "$": "qml-qtquick-controls2-dialogbuttonbox.html"
            },
            "anchor": {
              "$": "standardButton-method"
            },
            "arglist": {
              "$": "( button)"
            }
          }
        ]
      },
      {
        "@kind": "class",
        "name": {
          "$": "QtQuick.Controls.Drawer"
        },
        "filename": {
          "$": "qml-qtquick-controls2-drawer.html"
        }
      },
      {
        "@kind": "class",
        "name": {
          "$": "QtQuick.Controls.Frame"
        },
        "filename": {
          "$": "qml-qtquick-controls2-frame.html"
        }
      },
      {
        "@kind": "class",
        "name": {
          "$": "QtQuick.Controls.GroupBox"
        },
        "filename": {
          "$": "qml-qtquick-controls2-groupbox.html"
        }
      },
      {
        "@kind": "class",
        "name": {
          "$": "QtQuick.Controls.HorizontalHeaderView"
        },
        "filename": {
          "$": "qml-qtquick-controls2-horizontalheaderview.html"
        }
      },
      {
        "@kind": "class",
        "name": {
          "$": "QtQuick.Controls.ItemDelegate"
        },
        "filename": {
          "$": "qml-qtquick-controls2-itemdelegate.html"
        }
      },
      {
        "@kind": "class",
        "name": {
          "$": "QtQuick.Controls.Label"
        },
        "filename": {
          "$": "qml-qtquick-controls2-label.html"
        }
      },
      {
        "@kind": "class",
        "name": {
          "$": "QtQuick.Controls.Menu"
        },
        "filename": {
          "$": "qml-qtquick-controls2-menu.html"
        },
        "member": [
          {
            "@kind": "function",
            "@protection": "public",
            "@virtualness": "non",
            "@static": "no",
            "type": {
              "$": "Item"
            },
            "name": {
              "$": "itemAt"
            },
            "anchorfile": {
              "$": "qml-qtquick-controls2-menu.html"
            },
            "anchor": {
              "$": "itemAt-method"
            },
            "arglist": {
              "$": "( index)"
            }
          },
          {
            "@kind": "function",
            "@protection": "public",
            "@virtualness": "non",
            "@static": "no",
            "type": {
              "$": "void"
            },
            "name": {
              "$": "addItem"
            },
            "anchorfile": {
              "$": "qml-qtquick-controls2-menu.html"
            },
            "anchor": {
              "$": "addItem-method"
            },
            "arglist": {
              "$": "( item)"
            }
          },
          {
            "@kind": "function",
            "@protection": "public",
            "@virtualness": "non",
            "@static": "no",
            "type": {
              "$": "void"
            },
            "name": {
              "$": "insertItem"
            },
            "anchorfile": {
              "$": "qml-qtquick-controls2-menu.html"
            },
            "anchor": {
              "$": "insertItem-method"
            },
            "arglist": {
              "$": "( index,  Item item)"
            }
          },
          {
            "@kind": "function",
            "@protection": "public",
            "@virtualness": "non",
            "@static": "no",
            "type": {
              "$": "void"
            },
            "name": {
              "$": "moveItem"
            },
            "anchorfile": {
              "$": "qml-qtquick-controls2-menu.html"
            },
            "anchor": {
              "$": "moveItem-method"
            },
            "arglist": {
              "$": "( from,  int to)"
            }
          },
          {
            "@kind": "function",
            "@protection": "public",
            "@virtualness": "non",
            "@static": "no",
            "type": {
              "$": "void"
            },
            "name": {
              "$": "removeItem"
            },
            "anchorfile": {
              "$": "qml-qtquick-controls2-menu-obsolete.html"
            },
            "anchor": {
              "$": "removeItem-method"
            },
            "arglist": {
              "$": "( index)"
            }
          },
          {
            "@kind": "function",
            "@protection": "public",
            "@virtualness": "non",
            "@static": "no",
            "type": {
              "$": "void"
            },
            "name": {
              "$": "removeItem"
            },
            "anchorfile": {
              "$": "qml-qtquick-controls2-menu.html"
            },
            "anchor": {
              "$": "removeItem-method"
            },
            "arglist": {
              "$": "( item)"
            }
          },
          {
            "@kind": "function",
            "@protection": "public",
            "@virtualness": "non",
            "@static": "no",
            "type": {
              "$": "MenuItem"
            },
            "name": {
              "$": "takeItem"
            },
            "anchorfile": {
              "$": "qml-qtquick-controls2-menu.html"
            },
            "anchor": {
              "$": "takeItem-method"
            },
            "arglist": {
              "$": "( index)"
            }
          },
          {
            "@kind": "function",
            "@protection": "public",
            "@virtualness": "non",
            "@static": "no",
            "type": {
              "$": "Menu"
            },
            "name": {
              "$": "menuAt"
            },
            "anchorfile": {
              "$": "qml-qtquick-controls2-menu.html"
            },
            "anchor": {
              "$": "menuAt-method"
            },
            "arglist": {
              "$": "( index)"
            }
          },
          {
            "@kind": "function",
            "@protection": "public",
            "@virtualness": "non",
            "@static": "no",
            "type": {
              "$": "void"
            },
            "name": {
              "$": "addMenu"
            },
            "anchorfile": {
              "$": "qml-qtquick-controls2-menu.html"
            },
            "anchor": {
              "$": "addMenu-method"
            },
            "arglist": {
              "$": "( menu)"
            }
          },
          {
            "@kind": "function",
            "@protection": "public",
            "@virtualness": "non",
            "@static": "no",
            "type": {
              "$": "void"
            },
            "name": {
              "$": "insertMenu"
            },
            "anchorfile": {
              "$": "qml-qtquick-controls2-menu.html"
            },
            "anchor": {
              "$": "insertMenu-method"
            },
            "arglist": {
              "$": "( index,  Menu menu)"
            }
          },
          {
            "@kind": "function",
            "@protection": "public",
            "@virtualness": "non",
            "@static": "no",
            "type": {
              "$": "void"
            },
            "name": {
              "$": "removeMenu"
            },
            "anchorfile": {
              "$": "qml-qtquick-controls2-menu.html"
            },
            "anchor": {
              "$": "removeMenu-method"
            },
            "arglist": {
              "$": "( menu)"
            }
          },
          {
            "@kind": "function",
            "@protection": "public",
            "@virtualness": "non",
            "@static": "no",
            "type": {
              "$": "Menu"
            },
            "name": {
              "$": "takeMenu"
            },
            "anchorfile": {
              "$": "qml-qtquick-controls2-menu.html"
            },
            "anchor": {
              "$": "takeMenu-method"
            },
            "arglist": {
              "$": "( index)"
            }
          },
          {
            "@kind": "function",
            "@protection": "public",
            "@virtualness": "non",
            "@static": "no",
            "type": {
              "$": "Action"
            },
            "name": {
              "$": "actionAt"
            },
            "anchorfile": {
              "$": "qml-qtquick-controls2-menu.html"
            },
            "anchor": {
              "$": "actionAt-method"
            },
            "arglist": {
              "$": "( index)"
            }
          },
          {
            "@kind": "function",
            "@protection": "public",
            "@virtualness": "non",
            "@static": "no",
            "type": {
              "$": "void"
            },
            "name": {
              "$": "addAction"
            },
            "anchorfile": {
              "$": "qml-qtquick-controls2-menu.html"
            },
            "anchor": {
              "$": "addAction-method"
            },
            "arglist": {
              "$": "( action)"
            }
          },
          {
            "@kind": "function",
            "@protection": "public",
            "@virtualness": "non",
            "@static": "no",
            "type": {
              "$": "void"
            },
            "name": {
              "$": "insertAction"
            },
            "anchorfile": {
              "$": "qml-qtquick-controls2-menu.html"
            },
            "anchor": {
              "$": "insertAction-method"
            },
            "arglist": {
              "$": "( index,  Action action)"
            }
          },
          {
            "@kind": "function",
            "@protection": "public",
            "@virtualness": "non",
            "@static": "no",
            "type": {
              "$": "void"
            },
            "name": {
              "$": "removeAction"
            },
            "anchorfile": {
              "$": "qml-qtquick-controls2-menu.html"
            },
            "anchor": {
              "$": "removeAction-method"
            },
            "arglist": {
              "$": "( action)"
            }
          },
          {
            "@kind": "function",
            "@protection": "public",
            "@virtualness": "non",
            "@static": "no",
            "type": {
              "$": "Action"
            },
            "name": {
              "$": "takeAction"
            },
            "anchorfile": {
              "$": "qml-qtquick-controls2-menu.html"
            },
            "anchor": {
              "$": "takeAction-method"
            },
            "arglist": {
              "$": "( index)"
            }
          },
          {
            "@kind": "function",
            "@protection": "public",
            "@virtualness": "non",
            "@static": "no",
            "type": {
              "$": "void"
            },
            "name": {
              "$": "popup"
            },
            "anchorfile": {
              "$": "qml-qtquick-controls2-menu.html"
            },
            "anchor": {
              "$": "popup-method"
            },
            "arglist": {
              "$": "(MenuItem item = null)"
            }
          },
          {
            "@kind": "function",
            "@protection": "public",
            "@virtualness": "non",
            "@static": "no",
            "type": {
              "$": "void"
            },
            "name": {
              "$": "popup"
            },
            "anchorfile": {
              "$": "qml-qtquick-controls2-menu.html"
            },
            "anchor": {
              "$": "popup-method"
            },
            "arglist": {
              "$": "( parent,  MenuItem item = null)"
            }
          },
          {
            "@kind": "function",
            "@protection": "public",
            "@virtualness": "non",
            "@static": "no",
            "type": {
              "$": "void"
            },
            "name": {
              "$": "popup"
            },
            "anchorfile": {
              "$": "qml-qtquick-controls2-menu.html"
            },
            "anchor": {
              "$": "popup-method"
            },
            "arglist": {
              "$": "( pos,  MenuItem item = null)"
            }
          },
          {
            "@kind": "function",
            "@protection": "public",
            "@virtualness": "non",
            "@static": "no",
            "type": {
              "$": "void"
            },
            "name": {
              "$": "popup"
            },
            "anchorfile": {
              "$": "qml-qtquick-controls2-menu.html"
            },
            "anchor": {
              "$": "popup-method"
            },
            "arglist": {
              "$": "( parent,  point pos,  MenuItem item = null)"
            }
          },
          {
            "@kind": "function",
            "@protection": "public",
            "@virtualness": "non",
            "@static": "no",
            "type": {
              "$": "void"
            },
            "name": {
              "$": "popup"
            },
            "anchorfile": {
              "$": "qml-qtquick-controls2-menu.html"
            },
            "anchor": {
              "$": "popup-method"
            },
            "arglist": {
              "$": "( x,  real y,  MenuItem item = null)"
            }
          },
          {
            "@kind": "function",
            "@protection": "public",
            "@virtualness": "non",
            "@static": "no",
            "type": {
              "$": "void"
            },
            "name": {
              "$": "popup"
            },
            "anchorfile": {
              "$": "qml-qtquick-controls2-menu.html"
            },
            "anchor": {
              "$": "popup-method"
            },
            "arglist": {
              "$": "( parent,  real x,  real y,  MenuItem item = null)"
            }
          },
          {
            "@kind": "function",
            "@protection": "public",
            "@virtualness": "non",
            "@static": "no",
            "type": {
              "$": "void"
            },
            "name": {
              "$": "dismiss"
            },
            "anchorfile": {
              "$": "qml-qtquick-controls2-menu.html"
            },
            "anchor": {
              "$": "dismiss-method"
            },
            "arglist": {
              "$": "()"
            }
          }
        ]
      },
      {
        "@kind": "class",
        "name": {
          "$": "QtQuick.Controls.MenuBar"
        },
        "filename": {
          "$": "qml-qtquick-controls2-menubar.html"
        },
        "member": [
          {
            "@kind": "function",
            "@protection": "public",
            "@virtualness": "non",
            "@static": "no",
            "type": {
              "$": "Menu"
            },
            "name": {
              "$": "menuAt"
            },
            "anchorfile": {
              "$": "qml-qtquick-controls2-menubar.html"
            },
            "anchor": {
              "$": "menuAt-method"
            },
            "arglist": {
              "$": "( index)"
            }
          },
          {
            "@kind": "function",
            "@protection": "public",
            "@virtualness": "non",
            "@static": "no",
            "type": {
              "$": "void"
            },
            "name": {
              "$": "addMenu"
            },
            "anchorfile": {
              "$": "qml-qtquick-controls2-menubar.html"
            },
            "anchor": {
              "$": "addMenu-method"
            },
            "arglist": {
              "$": "( menu)"
            }
          },
          {
            "@kind": "function",
            "@protection": "public",
            "@virtualness": "non",
            "@static": "no",
            "type": {
              "$": "void"
            },
            "name": {
              "$": "insertMenu"
            },
            "anchorfile": {
              "$": "qml-qtquick-controls2-menubar.html"
            },
            "anchor": {
              "$": "insertMenu-method"
            },
            "arglist": {
              "$": "( index,  Menu menu)"
            }
          },
          {
            "@kind": "function",
            "@protection": "public",
            "@virtualness": "non",
            "@static": "no",
            "type": {
              "$": "void"
            },
            "name": {
              "$": "removeMenu"
            },
            "anchorfile": {
              "$": "qml-qtquick-controls2-menubar.html"
            },
            "anchor": {
              "$": "removeMenu-method"
            },
            "arglist": {
              "$": "( menu)"
            }
          },
          {
            "@kind": "function",
            "@protection": "public",
            "@virtualness": "non",
            "@static": "no",
            "type": {
              "$": "Menu"
            },
            "name": {
              "$": "takeMenu"
            },
            "anchorfile": {
              "$": "qml-qtquick-controls2-menubar.html"
            },
            "anchor": {
              "$": "takeMenu-method"
            },
            "arglist": {
              "$": "( index)"
            }
          }
        ]
      },
      {
        "@kind": "class",
        "name": {
          "$": "QtQuick.Controls.MenuBarItem"
        },
        "filename": {
          "$": "qml-qtquick-controls2-menubaritem.html"
        },
        "member": {
          "@kind": "function",
          "@protection": "public",
          "@virtualness": "non",
          "@static": "no",
          "type": {
            "$": "void"
          },
          "name": {
            "$": "triggered"
          },
          "anchorfile": {
            "$": "qml-qtquick-controls2-menubaritem.html"
          },
          "anchor": {
            "$": "triggered-signal"
          },
          "arglist": {
            "$": "()"
          }
        }
      },
      {
        "@kind": "class",
        "name": {
          "$": "QtQuick.Controls.MenuItem"
        },
        "filename": {
          "$": "qml-qtquick-controls2-menuitem.html"
        },
        "member": {
          "@kind": "function",
          "@protection": "public",
          "@virtualness": "non",
          "@static": "no",
          "type": {
            "$": "void"
          },
          "name": {
            "$": "triggered"
          },
          "anchorfile": {
            "$": "qml-qtquick-controls2-menuitem.html"
          },
          "anchor": {
            "$": "triggered-signal"
          },
          "arglist": {
            "$": "()"
          }
        }
      },
      {
        "@kind": "class",
        "name": {
          "$": "QtQuick.Controls.MenuSeparator"
        },
        "filename": {
          "$": "qml-qtquick-controls2-menuseparator.html"
        }
      },
      {
        "@kind": "class",
        "name": {
          "$": "QtQuick.Controls.Overlay"
        },
        "filename": {
          "$": "qml-qtquick-controls2-overlay.html"
        },
        "member": [
          {
            "@kind": "function",
            "@protection": "public",
            "@virtualness": "non",
            "@static": "no",
            "type": {},
            "name": {
              "$": "pressed"
            },
            "anchorfile": {
              "$": "qml-qtquick-controls2-overlay.html"
            },
            "anchor": {
              "$": "pressed-signal"
            },
            "arglist": {
              "$": "()"
            }
          },
          {
            "@kind": "function",
            "@protection": "public",
            "@virtualness": "non",
            "@static": "no",
            "type": {},
            "name": {
              "$": "released"
            },
            "anchorfile": {
              "$": "qml-qtquick-controls2-overlay.html"
            },
            "anchor": {
              "$": "released-signal"
            },
            "arglist": {
              "$": "()"
            }
          }
        ]
      },
      {
        "@kind": "class",
        "name": {
          "$": "QtQuick.Controls.Page"
        },
        "filename": {
          "$": "qml-qtquick-controls2-page.html"
        }
      },
      {
        "@kind": "class",
        "name": {
          "$": "QtQuick.Controls.PageIndicator"
        },
        "filename": {
          "$": "qml-qtquick-controls2-pageindicator.html"
        }
      },
      {
        "@kind": "class",
        "name": {
          "$": "QtQuick.Controls.Pane"
        },
        "filename": {
          "$": "qml-qtquick-controls2-pane.html"
        }
      },
      {
        "@kind": "class",
        "name": {
          "$": "QtQuick.Controls.Popup"
        },
        "filename": {
          "$": "qml-qtquick-controls2-popup.html"
        },
        "member": [
          {
            "@kind": "function",
            "@protection": "public",
            "@virtualness": "non",
            "@static": "no",
            "type": {
              "$": "void"
            },
            "name": {
              "$": "opened"
            },
            "anchorfile": {
              "$": "qml-qtquick-controls2-popup.html"
            },
            "anchor": {
              "$": "opened-signal"
            },
            "arglist": {
              "$": "()"
            }
          },
          {
            "@kind": "function",
            "@protection": "public",
            "@virtualness": "non",
            "@static": "no",
            "type": {
              "$": "void"
            },
            "name": {
              "$": "closed"
            },
            "anchorfile": {
              "$": "qml-qtquick-controls2-popup.html"
            },
            "anchor": {
              "$": "closed-signal"
            },
            "arglist": {
              "$": "()"
            }
          },
          {
            "@kind": "function",
            "@protection": "public",
            "@virtualness": "non",
            "@static": "no",
            "type": {
              "$": "void"
            },
            "name": {
              "$": "aboutToShow"
            },
            "anchorfile": {
              "$": "qml-qtquick-controls2-popup.html"
            },
            "anchor": {
              "$": "aboutToShow-signal"
            },
            "arglist": {
              "$": "()"
            }
          },
          {
            "@kind": "function",
            "@protection": "public",
            "@virtualness": "non",
            "@static": "no",
            "type": {
              "$": "void"
            },
            "name": {
              "$": "aboutToHide"
            },
            "anchorfile": {
              "$": "qml-qtquick-controls2-popup.html"
            },
            "anchor": {
              "$": "aboutToHide-signal"
            },
            "arglist": {
              "$": "()"
            }
          },
          {
            "@kind": "function",
            "@protection": "public",
            "@virtualness": "non",
            "@static": "no",
            "type": {
              "$": "void"
            },
            "name": {
              "$": "open"
            },
            "anchorfile": {
              "$": "qml-qtquick-controls2-popup.html"
            },
            "anchor": {
              "$": "open-method"
            },
            "arglist": {
              "$": "()"
            }
          },
          {
            "@kind": "function",
            "@protection": "public",
            "@virtualness": "non",
            "@static": "no",
            "type": {
              "$": "void"
            },
            "name": {
              "$": "close"
            },
            "anchorfile": {
              "$": "qml-qtquick-controls2-popup.html"
            },
            "anchor": {
              "$": "close-method"
            },
            "arglist": {
              "$": "()"
            }
          },
          {
            "@kind": "function",
            "@protection": "public",
            "@virtualness": "non",
            "@static": "no",
            "type": {},
            "name": {
              "$": "forceActiveFocus"
            },
            "anchorfile": {
              "$": "qml-qtquick-controls2-popup.html"
            },
            "anchor": {
              "$": "forceActiveFocus-method"
            },
            "arglist": {
              "$": "(enumeration reason = Qt.OtherFocusReason)"
            }
          }
        ]
      },
      {
        "@kind": "class",
        "name": {
          "$": "QtQuick.Controls.ProgressBar"
        },
        "filename": {
          "$": "qml-qtquick-controls2-progressbar.html"
        }
      },
      {
        "@kind": "class",
        "name": {
          "$": "QQuickStyle"
        },
        "filename": {
          "$": "qquickstyle.html"
        },
        "member": [
          {
            "@kind": "function",
            "@protection": "public",
            "@virtualness": "non",
            "@static": "yes",
            "type": {
              "$": "QString"
            },
            "name": {
              "$": "name"
            },
            "anchorfile": {
              "$": "qquickstyle.html"
            },
            "anchor": {
              "$": "name"
            },
            "arglist": {
              "$": "()"
            }
          },
          {
            "@kind": "function",
            "@protection": "public",
            "@virtualness": "non",
            "@static": "yes",
            "type": {
              "$": "QString"
            },
            "name": {
              "$": "path"
            },
            "anchorfile": {
              "$": "qquickstyle.html"
            },
            "anchor": {
              "$": "path"
            },
            "arglist": {
              "$": "()"
            }
          },
          {
            "@kind": "function",
            "@protection": "public",
            "@virtualness": "non",
            "@static": "yes",
            "type": {
              "$": "void"
            },
            "name": {
              "$": "setStyle"
            },
            "anchorfile": {
              "$": "qquickstyle.html"
            },
            "anchor": {
              "$": "setStyle"
            },
            "arglist": {
              "$": "(const QString &style)"
            }
          },
          {
            "@kind": "function",
            "@protection": "public",
            "@virtualness": "non",
            "@static": "yes",
            "type": {
              "$": "void"
            },
            "name": {
              "$": "setFallbackStyle"
            },
            "anchorfile": {
              "$": "qquickstyle.html"
            },
            "anchor": {
              "$": "setFallbackStyle"
            },
            "arglist": {
              "$": "(const QString &style)"
            }
          },
          {
            "@kind": "function",
            "@protection": "public",
            "@virtualness": "non",
            "@static": "yes",
            "type": {
              "$": "QStringList"
            },
            "name": {
              "$": "availableStyles"
            },
            "anchorfile": {
              "$": "qquickstyle.html"
            },
            "anchor": {
              "$": "availableStyles"
            },
            "arglist": {
              "$": "()"
            }
          },
          {
            "@kind": "function",
            "@protection": "public",
            "@virtualness": "non",
            "@static": "yes",
            "type": {
              "$": "QStringList"
            },
            "name": {
              "$": "stylePathList"
            },
            "anchorfile": {
              "$": "qquickstyle.html"
            },
            "anchor": {
              "$": "stylePathList"
            },
            "arglist": {
              "$": "()"
            }
          },
          {
            "@kind": "function",
            "@protection": "public",
            "@virtualness": "non",
            "@static": "yes",
            "type": {
              "$": "void"
            },
            "name": {
              "$": "addStylePath"
            },
            "anchorfile": {
              "$": "qquickstyle.html"
            },
            "anchor": {
              "$": "addStylePath"
            },
            "arglist": {
              "$": "(const QString &path)"
            }
          }
        ]
      },
      {
        "@kind": "class",
        "name": {
          "$": "QtQuick.Controls.RadioButton"
        },
        "filename": {
          "$": "qml-qtquick-controls2-radiobutton.html"
        }
      },
      {
        "@kind": "class",
        "name": {
          "$": "QtQuick.Controls.RadioDelegate"
        },
        "filename": {
          "$": "qml-qtquick-controls2-radiodelegate.html"
        }
      },
      {
        "@kind": "class",
        "name": {
          "$": "QtQuick.Controls.RangeSlider"
        },
        "filename": {
          "$": "qml-qtquick-controls2-rangeslider.html"
        },
        "member": [
          {
            "@kind": "function",
            "@protection": "public",
            "@virtualness": "non",
            "@static": "no",
            "type": {
              "$": "real"
            },
            "name": {
              "$": "valueAt"
            },
            "anchorfile": {
              "$": "qml-qtquick-controls2-rangeslider.html"
            },
            "anchor": {
              "$": "valueAt-method"
            },
            "arglist": {
              "$": "( position)"
            }
          },
          {
            "@kind": "function",
            "@protection": "public",
            "@virtualness": "non",
            "@static": "no",
            "type": {
              "$": "void"
            },
            "name": {
              "$": "first.moved"
            },
            "anchorfile": {
              "$": "qml-qtquick-controls2-rangeslider.html"
            },
            "anchor": {
              "$": "first.moved-signal"
            },
            "arglist": {
              "$": "()"
            }
          },
          {
            "@kind": "function",
            "@protection": "public",
            "@virtualness": "non",
            "@static": "no",
            "type": {
              "$": "void"
            },
            "name": {
              "$": "second.moved"
            },
            "anchorfile": {
              "$": "qml-qtquick-controls2-rangeslider.html"
            },
            "anchor": {
              "$": "second.moved-signal"
            },
            "arglist": {
              "$": "()"
            }
          },
          {
            "@kind": "function",
            "@protection": "public",
            "@virtualness": "non",
            "@static": "no",
            "type": {
              "$": "void"
            },
            "name": {
              "$": "setValues"
            },
            "anchorfile": {
              "$": "qml-qtquick-controls2-rangeslider.html"
            },
            "anchor": {
              "$": "setValues-method"
            },
            "arglist": {
              "$": "( firstValue,  real secondValue)"
            }
          },
          {
            "@kind": "function",
            "@protection": "public",
            "@virtualness": "non",
            "@static": "no",
            "type": {
              "$": "void"
            },
            "name": {
              "$": "first.increase"
            },
            "anchorfile": {
              "$": "qml-qtquick-controls2-rangeslider.html"
            },
            "anchor": {
              "$": "first.increase-method"
            },
            "arglist": {
              "$": "()"
            }
          },
          {
            "@kind": "function",
            "@protection": "public",
            "@virtualness": "non",
            "@static": "no",
            "type": {
              "$": "void"
            },
            "name": {
              "$": "first.decrease"
            },
            "anchorfile": {
              "$": "qml-qtquick-controls2-rangeslider.html"
            },
            "anchor": {
              "$": "first.decrease-method"
            },
            "arglist": {
              "$": "()"
            }
          },
          {
            "@kind": "function",
            "@protection": "public",
            "@virtualness": "non",
            "@static": "no",
            "type": {
              "$": "void"
            },
            "name": {
              "$": "second.increase"
            },
            "anchorfile": {
              "$": "qml-qtquick-controls2-rangeslider.html"
            },
            "anchor": {
              "$": "second.increase-method"
            },
            "arglist": {
              "$": "()"
            }
          },
          {
            "@kind": "function",
            "@protection": "public",
            "@virtualness": "non",
            "@static": "no",
            "type": {
              "$": "void"
            },
            "name": {
              "$": "second.decrease"
            },
            "anchorfile": {
              "$": "qml-qtquick-controls2-rangeslider.html"
            },
            "anchor": {
              "$": "second.decrease-method"
            },
            "arglist": {
              "$": "()"
            }
          }
        ]
      },
      {
        "@kind": "class",
        "name": {
          "$": "QtQuick.Controls.RoundButton"
        },
        "filename": {
          "$": "qml-qtquick-controls2-roundbutton.html"
        }
      },
      {
        "@kind": "class",
        "name": {
          "$": "QtQuick.Controls.ScrollBar"
        },
        "filename": {
          "$": "qml-qtquick-controls2-scrollbar.html"
        },
        "member": [
          {
            "@kind": "function",
            "@protection": "public",
            "@virtualness": "non",
            "@static": "no",
            "type": {
              "$": "void"
            },
            "name": {
              "$": "increase"
            },
            "anchorfile": {
              "$": "qml-qtquick-controls2-scrollbar.html"
            },
            "anchor": {
              "$": "increase-method"
            },
            "arglist": {
              "$": "()"
            }
          },
          {
            "@kind": "function",
            "@protection": "public",
            "@virtualness": "non",
            "@static": "no",
            "type": {
              "$": "void"
            },
            "name": {
              "$": "decrease"
            },
            "anchorfile": {
              "$": "qml-qtquick-controls2-scrollbar.html"
            },
            "anchor": {
              "$": "decrease-method"
            },
            "arglist": {
              "$": "()"
            }
          }
        ]
      },
      {
        "@kind": "class",
        "name": {
          "$": "QtQuick.Controls.ScrollIndicator"
        },
        "filename": {
          "$": "qml-qtquick-controls2-scrollindicator.html"
        }
      },
      {
        "@kind": "class",
        "name": {
          "$": "QtQuick.Controls.ScrollView"
        },
        "filename": {
          "$": "qml-qtquick-controls2-scrollview.html"
        }
      },
      {
        "@kind": "class",
        "name": {
          "$": "QtQuick.Controls.Slider"
        },
        "filename": {
          "$": "qml-qtquick-controls2-slider.html"
        },
        "member": [
          {
            "@kind": "function",
            "@protection": "public",
            "@virtualness": "non",
            "@static": "no",
            "type": {},
            "name": {
              "$": "moved"
            },
            "anchorfile": {
              "$": "qml-qtquick-controls2-slider.html"
            },
            "anchor": {
              "$": "moved-signal"
            },
            "arglist": {
              "$": "()"
            }
          },
          {
            "@kind": "function",
            "@protection": "public",
            "@virtualness": "non",
            "@static": "no",
            "type": {
              "$": "real"
            },
            "name": {
              "$": "valueAt"
            },
            "anchorfile": {
              "$": "qml-qtquick-controls2-slider.html"
            },
            "anchor": {
              "$": "valueAt-method"
            },
            "arglist": {
              "$": "( position)"
            }
          },
          {
            "@kind": "function",
            "@protection": "public",
            "@virtualness": "non",
            "@static": "no",
            "type": {
              "$": "void"
            },
            "name": {
              "$": "increase"
            },
            "anchorfile": {
              "$": "qml-qtquick-controls2-slider.html"
            },
            "anchor": {
              "$": "increase-method"
            },
            "arglist": {
              "$": "()"
            }
          },
          {
            "@kind": "function",
            "@protection": "public",
            "@virtualness": "non",
            "@static": "no",
            "type": {
              "$": "void"
            },
            "name": {
              "$": "decrease"
            },
            "anchorfile": {
              "$": "qml-qtquick-controls2-slider.html"
            },
            "anchor": {
              "$": "decrease-method"
            },
            "arglist": {
              "$": "()"
            }
          }
        ]
      },
      {
        "@kind": "class",
        "name": {
          "$": "QtQuick.Controls.SpinBox"
        },
        "filename": {
          "$": "qml-qtquick-controls2-spinbox.html"
        },
        "member": [
          {
            "@kind": "function",
            "@protection": "public",
            "@virtualness": "non",
            "@static": "no",
            "type": {},
            "name": {
              "$": "valueModified"
            },
            "anchorfile": {
              "$": "qml-qtquick-controls2-spinbox.html"
            },
            "anchor": {
              "$": "valueModified-signal"
            },
            "arglist": {
              "$": "()"
            }
          },
          {
            "@kind": "function",
            "@protection": "public",
            "@virtualness": "non",
            "@static": "no",
            "type": {
              "$": "void"
            },
            "name": {
              "$": "increase"
            },
            "anchorfile": {
              "$": "qml-qtquick-controls2-spinbox.html"
            },
            "anchor": {
              "$": "increase-method"
            },
            "arglist": {
              "$": "()"
            }
          },
          {
            "@kind": "function",
            "@protection": "public",
            "@virtualness": "non",
            "@static": "no",
            "type": {
              "$": "void"
            },
            "name": {
              "$": "decrease"
            },
            "anchorfile": {
              "$": "qml-qtquick-controls2-spinbox.html"
            },
            "anchor": {
              "$": "decrease-method"
            },
            "arglist": {
              "$": "()"
            }
          }
        ]
      },
      {
        "@kind": "class",
        "name": {
          "$": "QtQuick.Controls.SplitHandle"
        },
        "filename": {
          "$": "qml-qtquick-controls2-splithandle.html"
        }
      },
      {
        "@kind": "class",
        "name": {
          "$": "QtQuick.Controls.SplitView"
        },
        "filename": {
          "$": "qml-qtquick-controls2-splitview.html"
        },
        "member": [
          {
            "@kind": "function",
            "@protection": "public",
            "@virtualness": "non",
            "@static": "no",
            "type": {
              "$": "var"
            },
            "name": {
              "$": "saveState"
            },
            "anchorfile": {
              "$": "qml-qtquick-controls2-splitview.html"
            },
            "anchor": {
              "$": "saveState-method"
            },
            "arglist": {
              "$": "()"
            }
          },
          {
            "@kind": "function",
            "@protection": "public",
            "@virtualness": "non",
            "@static": "no",
            "type": {
              "$": "bool"
            },
            "name": {
              "$": "restoreState"
            },
            "anchorfile": {
              "$": "qml-qtquick-controls2-splitview.html"
            },
            "anchor": {
              "$": "restoreState-method"
            },
            "arglist": {
              "$": "( state)"
            }
          }
        ]
      },
      {
        "@kind": "class",
        "name": {
          "$": "QtQuick.Controls.StackView"
        },
        "filename": {
          "$": "qml-qtquick-controls2-stackview.html"
        },
        "member": [
          {
            "@kind": "function",
            "@protection": "public",
            "@virtualness": "non",
            "@static": "no",
            "type": {
              "$": "Item"
            },
            "name": {
              "$": "get"
            },
            "anchorfile": {
              "$": "qml-qtquick-controls2-stackview.html"
            },
            "anchor": {
              "$": "get-method"
            },
            "arglist": {
              "$": "( index,  behavior)"
            }
          },
          {
            "@kind": "function",
            "@protection": "public",
            "@virtualness": "non",
            "@static": "no",
            "type": {
              "$": "Item"
            },
            "name": {
              "$": "find"
            },
            "anchorfile": {
              "$": "qml-qtquick-controls2-stackview.html"
            },
            "anchor": {
              "$": "find-method"
            },
            "arglist": {
              "$": "( callback,  behavior)"
            }
          },
          {
            "@kind": "function",
            "@protection": "public",
            "@virtualness": "non",
            "@static": "no",
            "type": {
              "$": "Item"
            },
            "name": {
              "$": "push"
            },
            "anchorfile": {
              "$": "qml-qtquick-controls2-stackview.html"
            },
            "anchor": {
              "$": "push-method"
            },
            "arglist": {
              "$": "( item,  properties,  operation)"
            }
          },
          {
            "@kind": "function",
            "@protection": "public",
            "@virtualness": "non",
            "@static": "no",
            "type": {
              "$": "Item"
            },
            "name": {
              "$": "pop"
            },
            "anchorfile": {
              "$": "qml-qtquick-controls2-stackview.html"
            },
            "anchor": {
              "$": "pop-method"
            },
            "arglist": {
              "$": "( item,  operation)"
            }
          },
          {
            "@kind": "function",
            "@protection": "public",
            "@virtualness": "non",
            "@static": "no",
            "type": {
              "$": "Item"
            },
            "name": {
              "$": "replace"
            },
            "anchorfile": {
              "$": "qml-qtquick-controls2-stackview.html"
            },
            "anchor": {
              "$": "replace-method"
            },
            "arglist": {
              "$": "( target,  item,  properties,  operation)"
            }
          },
          {
            "@kind": "function",
            "@protection": "public",
            "@virtualness": "non",
            "@static": "no",
            "type": {
              "$": "void"
            },
            "name": {
              "$": "clear"
            },
            "anchorfile": {
              "$": "qml-qtquick-controls2-stackview.html"
            },
            "anchor": {
              "$": "clear-method"
            },
            "arglist": {
              "$": "( transition)"
            }
          },
          {
            "@kind": "function",
            "@protection": "public",
            "@virtualness": "non",
            "@static": "no",
            "type": {},
            "name": {
              "$": "activated"
            },
            "anchorfile": {
              "$": "qml-qtquick-controls2-stackview.html"
            },
            "anchor": {
              "$": "activated-signal"
            },
            "arglist": {
              "$": "()"
            }
          },
          {
            "@kind": "function",
            "@protection": "public",
            "@virtualness": "non",
            "@static": "no",
            "type": {},
            "name": {
              "$": "deactivated"
            },
            "anchorfile": {
              "$": "qml-qtquick-controls2-stackview.html"
            },
            "anchor": {
              "$": "deactivated-signal"
            },
            "arglist": {
              "$": "()"
            }
          },
          {
            "@kind": "function",
            "@protection": "public",
            "@virtualness": "non",
            "@static": "no",
            "type": {},
            "name": {
              "$": "activating"
            },
            "anchorfile": {
              "$": "qml-qtquick-controls2-stackview.html"
            },
            "anchor": {
              "$": "activating-signal"
            },
            "arglist": {
              "$": "()"
            }
          },
          {
            "@kind": "function",
            "@protection": "public",
            "@virtualness": "non",
            "@static": "no",
            "type": {},
            "name": {
              "$": "deactivating"
            },
            "anchorfile": {
              "$": "qml-qtquick-controls2-stackview.html"
            },
            "anchor": {
              "$": "deactivating-signal"
            },
            "arglist": {
              "$": "()"
            }
          },
          {
            "@kind": "function",
            "@protection": "public",
            "@virtualness": "non",
            "@static": "no",
            "type": {},
            "name": {
              "$": "removed"
            },
            "anchorfile": {
              "$": "qml-qtquick-controls2-stackview.html"
            },
            "anchor": {
              "$": "removed-signal"
            },
            "arglist": {
              "$": "()"
            }
          }
        ]
      },
      {
        "@kind": "class",
        "name": {
          "$": "QtQuick.Controls.SwipeDelegate"
        },
        "filename": {
          "$": "qml-qtquick-controls2-swipedelegate.html"
        },
        "member": [
          {
            "@kind": "function",
            "@protection": "public",
            "@virtualness": "non",
            "@static": "no",
            "type": {
              "$": "void"
            },
            "name": {
              "$": "swipe.open"
            },
            "anchorfile": {
              "$": "qml-qtquick-controls2-swipedelegate.html"
            },
            "anchor": {
              "$": "swipe.open-method"
            },
            "arglist": {
              "$": "( side)"
            }
          },
          {
            "@kind": "function",
            "@protection": "public",
            "@virtualness": "non",
            "@static": "no",
            "type": {
              "$": "void"
            },
            "name": {
              "$": "swipe.close"
            },
            "anchorfile": {
              "$": "qml-qtquick-controls2-swipedelegate.html"
            },
            "anchor": {
              "$": "swipe.close-method"
            },
            "arglist": {
              "$": "()"
            }
          },
          {
            "@kind": "function",
            "@protection": "public",
            "@virtualness": "non",
            "@static": "no",
            "type": {
              "$": "void"
            },
            "name": {
              "$": "swipe.opened"
            },
            "anchorfile": {
              "$": "qml-qtquick-controls2-swipedelegate.html"
            },
            "anchor": {
              "$": "swipe.opened-signal"
            },
            "arglist": {
              "$": "()"
            }
          },
          {
            "@kind": "function",
            "@protection": "public",
            "@virtualness": "non",
            "@static": "no",
            "type": {
              "$": "void"
            },
            "name": {
              "$": "swipe.closed"
            },
            "anchorfile": {
              "$": "qml-qtquick-controls2-swipedelegate.html"
            },
            "anchor": {
              "$": "swipe.closed-signal"
            },
            "arglist": {
              "$": "()"
            }
          },
          {
            "@kind": "function",
            "@protection": "public",
            "@virtualness": "non",
            "@static": "no",
            "type": {
              "$": "void"
            },
            "name": {
              "$": "swipe.completed"
            },
            "anchorfile": {
              "$": "qml-qtquick-controls2-swipedelegate.html"
            },
            "anchor": {
              "$": "swipe.completed-signal"
            },
            "arglist": {
              "$": "()"
            }
          },
          {
            "@kind": "function",
            "@protection": "public",
            "@virtualness": "non",
            "@static": "no",
            "type": {},
            "name": {
              "$": "clicked"
            },
            "anchorfile": {
              "$": "qml-qtquick-controls2-swipedelegate.html"
            },
            "anchor": {
              "$": "clicked-signal"
            },
            "arglist": {
              "$": "()"
            }
          }
        ]
      },
      {
        "@kind": "class",
        "name": {
          "$": "QtQuick.Controls.SwipeView"
        },
        "filename": {
          "$": "qml-qtquick-controls2-swipeview.html"
        }
      },
      {
        "@kind": "class",
        "name": {
          "$": "QtQuick.Controls.Switch"
        },
        "filename": {
          "$": "qml-qtquick-controls2-switch.html"
        }
      },
      {
        "@kind": "class",
        "name": {
          "$": "QtQuick.Controls.SwitchDelegate"
        },
        "filename": {
          "$": "qml-qtquick-controls2-switchdelegate.html"
        }
      },
      {
        "@kind": "class",
        "name": {
          "$": "QtQuick.Controls.TabBar"
        },
        "filename": {
          "$": "qml-qtquick-controls2-tabbar.html"
        }
      },
      {
        "@kind": "class",
        "name": {
          "$": "QtQuick.Controls.TabButton"
        },
        "filename": {
          "$": "qml-qtquick-controls2-tabbutton.html"
        }
      },
      {
        "@kind": "class",
        "name": {
          "$": "QtQuick.Controls.TextArea"
        },
        "filename": {
          "$": "qml-qtquick-controls2-textarea.html"
        },
        "member": [
          {
            "@kind": "function",
            "@protection": "public",
            "@virtualness": "non",
            "@static": "no",
            "type": {},
            "name": {
              "$": "pressAndHold"
            },
            "anchorfile": {
              "$": "qml-qtquick-controls2-textarea.html"
            },
            "anchor": {
              "$": "pressAndHold-signal"
            },
            "arglist": {
              "$": "( event)"
            }
          },
          {
            "@kind": "function",
            "@protection": "public",
            "@virtualness": "non",
            "@static": "no",
            "type": {},
            "name": {
              "$": "pressed"
            },
            "anchorfile": {
              "$": "qml-qtquick-controls2-textarea.html"
            },
            "anchor": {
              "$": "pressed-signal"
            },
            "arglist": {
              "$": "( event)"
            }
          },
          {
            "@kind": "function",
            "@protection": "public",
            "@virtualness": "non",
            "@static": "no",
            "type": {},
            "name": {
              "$": "released"
            },
            "anchorfile": {
              "$": "qml-qtquick-controls2-textarea.html"
            },
            "anchor": {
              "$": "released-signal"
            },
            "arglist": {
              "$": "( event)"
            }
          }
        ]
      },
      {
        "@kind": "class",
        "name": {
          "$": "QtQuick.Controls.TextField"
        },
        "filename": {
          "$": "qml-qtquick-controls2-textfield.html"
        },
        "member": [
          {
            "@kind": "function",
            "@protection": "public",
            "@virtualness": "non",
            "@static": "no",
            "type": {},
            "name": {
              "$": "pressAndHold"
            },
            "anchorfile": {
              "$": "qml-qtquick-controls2-textfield.html"
            },
            "anchor": {
              "$": "pressAndHold-signal"
            },
            "arglist": {
              "$": "( event)"
            }
          },
          {
            "@kind": "function",
            "@protection": "public",
            "@virtualness": "non",
            "@static": "no",
            "type": {},
            "name": {
              "$": "pressed"
            },
            "anchorfile": {
              "$": "qml-qtquick-controls2-textfield.html"
            },
            "anchor": {
              "$": "pressed-signal"
            },
            "arglist": {
              "$": "( event)"
            }
          },
          {
            "@kind": "function",
            "@protection": "public",
            "@virtualness": "non",
            "@static": "no",
            "type": {},
            "name": {
              "$": "released"
            },
            "anchorfile": {
              "$": "qml-qtquick-controls2-textfield.html"
            },
            "anchor": {
              "$": "released-signal"
            },
            "arglist": {
              "$": "( event)"
            }
          }
        ]
      },
      {
        "@kind": "class",
        "name": {
          "$": "QtQuick.Controls.ToolBar"
        },
        "filename": {
          "$": "qml-qtquick-controls2-toolbar.html"
        }
      },
      {
        "@kind": "class",
        "name": {
          "$": "QtQuick.Controls.ToolButton"
        },
        "filename": {
          "$": "qml-qtquick-controls2-toolbutton.html"
        }
      },
      {
        "@kind": "class",
        "name": {
          "$": "QtQuick.Controls.ToolSeparator"
        },
        "filename": {
          "$": "qml-qtquick-controls2-toolseparator.html"
        }
      },
      {
        "@kind": "class",
        "name": {
          "$": "QtQuick.Controls.ToolTip"
        },
        "filename": {
          "$": "qml-qtquick-controls2-tooltip.html"
        },
        "member": [
          {
            "@kind": "function",
            "@protection": "public",
            "@virtualness": "non",
            "@static": "no",
            "type": {
              "$": "void"
            },
            "name": {
              "$": "show"
            },
            "anchorfile": {
              "$": "qml-qtquick-controls2-tooltip.html"
            },
            "anchor": {
              "$": "show-method"
            },
            "arglist": {
              "$": "( text,  int timeout)"
            }
          },
          {
            "@kind": "function",
            "@protection": "public",
            "@virtualness": "non",
            "@static": "no",
            "type": {
              "$": "void"
            },
            "name": {
              "$": "hide"
            },
            "anchorfile": {
              "$": "qml-qtquick-controls2-tooltip.html"
            },
            "anchor": {
              "$": "hide-method"
            },
            "arglist": {
              "$": "()"
            }
          },
          {
            "@kind": "function",
            "@protection": "public",
            "@virtualness": "non",
            "@static": "no",
            "type": {
              "$": "void"
            },
            "name": {
              "$": "show"
            },
            "anchorfile": {
              "$": "qml-qtquick-controls2-tooltip.html"
            },
            "anchor": {
              "$": "show-method"
            },
            "arglist": {
              "$": "( text,  int timeout = -1 )"
            }
          },
          {
            "@kind": "function",
            "@protection": "public",
            "@virtualness": "non",
            "@static": "no",
            "type": {
              "$": "void"
            },
            "name": {
              "$": "hide"
            },
            "anchorfile": {
              "$": "qml-qtquick-controls2-tooltip.html"
            },
            "anchor": {
              "$": "hide-method"
            },
            "arglist": {
              "$": "()"
            }
          }
        ]
      },
      {
        "@kind": "class",
        "name": {
          "$": "QtQuick.Controls.Tumbler"
        },
        "filename": {
          "$": "qml-qtquick-controls2-tumbler.html"
        },
        "member": {
          "@kind": "function",
          "@protection": "public",
          "@virtualness": "non",
          "@static": "no",
          "type": {
            "$": "void"
          },
          "name": {
            "$": "positionViewAtIndex"
          },
          "anchorfile": {
            "$": "qml-qtquick-controls2-tumbler.html"
          },
          "anchor": {
            "$": "positionViewAtIndex-method"
          },
          "arglist": {
            "$": "( index,  PositionMode mode)"
          }
        }
      },
      {
        "@kind": "class",
        "name": {
          "$": "QtQuick.Controls.VerticalHeaderView"
        },
        "filename": {
          "$": "qml-qtquick-controls2-verticalheaderview.html"
        }
      }
    ]
  }
}